Magikarp 35 0 0
Poliwag 45 0 0
Goldeen 50 15 15
Grimer 65 15 15
Finneon 65 15 15
Chinchou 75 20 15
Remoraid 100 20 15
Qwilfish 100 25 15
Carvanha 125 30 15
Shelder 125 30 15
Clamperl 125 30 15
Barboach 130 35 15
Corphish 130 35 15
Relicanth 150 40 15
Wailmer 175 45 15
Lumineon 185 50 50
Feebas 200 50 50
Crawdaunt 225 55 50
Shellder 225 55 50
Poliwhirl 250 60 50
Whiscash 250 60  50
Lanturn 300 65 50
Sharpedo 300 65 50
Corsola 300 65 50
Horsea 400 70 75
Staryu 400 70 75
Wailord 500 75 75
Octillery 575 80 75
Gyarados 650 85 75
Dratini 750 90 75
Dragonair 1000 99 75