[npc]
Tin Tower Sage
down
276
7
2
NULL
0
-1
0,1
false
false
false
[/npc]
[npc]
Tin Tower Sage
up
276
7
6
NULL
0
-1
2,3
false
false
false
[/npc]
[npc]
Tin Tower Sage
left
276
8
5
NULL
0
-1
4,5
false
false
false
[/npc]
[warp]
2
4
2
3
-31
-47
0
[/warp]
[warp]
9
4
23
3
-4
-4
0
[/warp]
