[npc]
Ecruteak Citizen
down
277
3
4
NULL
0
-1
0,1
false
false
false
[/npc]
[npc]
NULL
down
0
4
4
NULL
0
-1
2,3,4,5,6,7,8,9,10
false
false
false
[/npc]
[warp]
4
9
14
32
-4
-4
0
[/warp]
