[npc]
Random_Battlefrontier_Trainer
left
267
7
5
Sandshrew,17,Sandslash,17,Zubat,19
3
-1
1
false
false
false
[/npc]
[npc]
Battlefrontier Nurse Joy
down
157
1
6
NULL
0
-1
1
true
false
false
[/npc]
[warp]
5
9
121
14
29
26
0
[/warp]
[warp]
6
9
121
14
29
26
0
[/warp]