[warp]
3
9
77
23
48
-48
0
[/warp]
[warp]
3
10
77
23
48
-48
0
[/warp]
[warp]
3
11
77
23
48
-48
0
[/warp]
[warp]
3
14
77
23
48
-48
0
[/warp]
[warp]
3
15
77
23
48
-48
0
[/warp]
[warp]
3
16
77
23
48
-48
0
[/warp]