[npc]
Olivine Citizen
down
274
3
4
NULL
0
-1
0,1
false
false
false
[/npc]
[npc]
Daughter
down
262
8
8
NULL
0
-1
2
false
false
false
[/npc]
[warp]
4
12
28
13
-6
-3
0
[/warp]
[warp]
5
12
28
13
-6
-3
0
[/warp]
