[warp]
6
22
60
49
11
18
0
[/warp]
[warp]
32
22
72
15
4
3
0
[/warp]
[warp]
21
8
22
8
-44
-28
0
[/warp]
[warp]
30
8
29
8
-44
-28
0
[/warp]
[warp]
10
6
9
6
-44
-28
0
[/warp]
[warp]
31
4
30
4
-44
-28
0
[/warp]
[warp]
28
19
29
19
-44
-28
0
[/warp]