[npc]
NULL
down
0
15
1
NULL
0
-1
0,1
false
false
false
[/npc]
[npc]
NULL
down
0
12
2
NULL
0
-1
2,3
false
false
false
[/npc]
[npc]
NULL
down
0
11
2
NULL
0
-1
2,3
false
false
false
[/npc]
[npc]
NULL
down
0
10
2
NULL
0
-1
2,3
false
false
false
[/npc]
[npc]
Resting person
down
274
9
4
NULL
0
-1
4,5
false
false
false
[/npc]
[warp]
16
1
16
2
-48
-47
0
[/warp]
