[npc]
Burglar Arnie
left
320
9
7
Charmander,34,Charmeleon,34
2
-1
0
false
false
false
[/npc]
[npc]
Scientist Braydon
right
344
28
18
Magnemite,33,Magneton,33,Voltorb,33
3
-1
1
false
false
false
[/npc]
[npc]
Burglar Simon
right
314
24
25
Ninetales,38
1
-1
2
false
false
false
[/npc]
[warp]
7
37
8
6
3
3
0
[/warp]
[warp]
21
26
32
27
-49
-14
0
[/warp]