[warp]
5
8
19
18
-6
-3
0
[/warp]
[npc]
Shop Keeper
right
185
3
3
NULL
0
-1
0
FALSE
FALSE
FALSE
[/npc]
[npc]
NULL
down
0
4
3
NULL
0
-1
1
FALSE
FALSE
TRUE
[/npc]
[npc]
NULL
down
0
3
4
NULL
0
-1
1
FALSE
FALSE
TRUE
[/npc]
