[npc]
Bug Catcher Wayne
down
354
25
10
Ledyba,8,Paras,10
2
-1
0
false
false
false
[/npc]
[npc]
NULL
down
0
21
33
NULL
0
-1
1
false
false
false
[/npc]
[hmobject]
CUT_TREE
21
35
[/hmobject] 