[npc]
PN Staff
up
317
6
10
NULL
0
-1
0,1
false
false
false
[/npc]
[warp]
11
2
14
2
-50
-26
0
[/warp]
[warp]
2
2
6
2
-50
-26
0
[/warp]
[warp]
15
2
11
3
-50
-28
0
[/warp]
[warp]
6
2
5
3
-50
-28
0
[/warp]