[npc]
NULL
down
0
20
37
NULL
0
-1
2,3
false
false
false
[/npc]
[npc]
NULL
down
0
13
34
NULL
0
-1
0,1
false
false
false
[/npc]
[npc]
NULL
down
0
6
41
NULL
0
-1
4,5,6
false
false
false
[/npc]
[npc]
NULL
down
0
19
49
NULL
0
-1
7,8,9
false
false
false
[/npc]
[warp]
23
45
15
16
-32
-34
0
[/warp]
[warp]
9
45
24
31
-38
-38
0
[/warp]
[warp]
16
49
3
9
-37
-37
0
[/warp]
[warp]
9
34
3
9
-32
-36
0
[/warp]
[warp]
6
22
3
9
-32
-37
0
[/warp]
[warp]
16
43
3
9
-32
-38
0
[/warp]
[warp]
14
39
3
9
-32
-39
0
[/warp]
