[npc]
Regice
up
0
10
10
Regice,50
1
-1
0
false
false
false
[/npc]
[npc]
Regice
up
0
11
10
Regice,50
1
-1
0
false
false
false
[/npc]
[warp]
10
16
32
30
2
-48
0
[/warp]