[npc]
Swimmer Imani
right
282
20
3
Marill,26
1
-1
0
false
false
false
[/npc]
[npc]
Swimmer Dominik
left
281
27
10
Tentacool,10
1
-1
0
false
false
false
[/npc]
[npc]
Swimmer Beverly
right
282
22
28
Wingull,25,Wailmer,25
2
-1
0
false
false
false
[/npc]
[npc]
Swimmer Luis
left
281
27
71
Carvanha,26
1
-1
0
false
false
false
[/npc]
[npc]
Ruin Maniac Andres
up
365
16
49
Sandshrew,25,Sandshrew,25
2
-1
0
false
false
false
[/npc]