[npc]
NPC
down
369
36
17
NULL
0
-1
8
false
false
false
[/npc]
[npc]
NPC
down
351
12
36
NULL
0
-1
4,5
false
false
false
[/npc]
[npc]
NPC
right
261
5
43
NULL
0
-1
6
false
false
false
[/npc]
[npc]
NULL
down
266
18
51
NULL
0
-1
14,15,16
false
false
false
[/npc]
[npc]
NULL
down
270
13
33
NULL
0
-1
7
false
false
false
[/npc]
[hmobject]
CUT_TREE
11
13
[/hmobject]
[hmobject]
CUT_TREE
12
13
[/hmobject]
[hmobject]
CUT_TREE
13
13
[/hmobject]
[npc]
NULL
down
122
34
15
NULL
0
-1
9,10,11,12,13
false
false
false
[/npc]
[npc]
NULL
down
271
10
13
NULL
0
-1
17
false
false
false
[/npc]
[npc]
NPC
down
362
1
24
NULL
0
-1
2,3
false
false
false
[/npc]
[warp]
11
23
15
16
5
-49
0
[/warp]
[warp]
15
39
5
8
5
-50
0
[/warp]
[warp]
9
60
25
6
34
-44
0
[/warp]
[warp]
10
60
26
6
34
-44
0
[/warp]
[warp]
11
60
27
6
34
-44
0
[/warp]
[warp]
16
48
14
31
-48
48
0
[/warp]
[warp]
17
23
3
9
-31
46
0
[/warp]
[warp]
21
40
22
13
-38
-18
0
[/warp]
[warp]
3
53
10
8
-38
-23
0
[/warp]
[warp]
20
12
8
9
-38
-33
0
[/warp]
[warp]
34
29
10
8
-38
-35
0
[/warp]
[warp]
11
11
13
10
-41
-22
0
[/warp]
[warp]
16
32
13
17
-41
-31
0
[/warp]



