[npc]
NPC
up
261
41
36
NULL
0
-1
16,17
false
false
false
[/npc]
[npc]
NPC
up
351
57
52
NULL
0
-1
15
false
false
false
[/npc]
[npc]
NPC
right
357
53
37
NULL
0
-1
14
false
false
false
[/npc]
[npc]
NPC
right
47
47
34
NULL
0
-1
11,12,13
false
false
false
[/npc]
[npc]
NPC
up
382
47
23
NULL
0
-1
9,10
false
false
false
[/npc]
[npc]
NPC
left
349
20
14
NULL
0
-1
8
false
false
false
[/npc]
[npc]
NPC
right
320
32
17
NULL
0
-1
6,7
false
false
false
[/npc]
[npc]
NPC
down
317
13
23
NULL
0
-1
2,3
false
false
false
[/npc]
[npc]
NULL
down
319
23
19
NULL
0
-1
4,5
false
false
false
[/npc]
[warp]
2
13
25
20
2
-31
0
[/warp]
[warp]
30
11
5
7
2
-50
0
[/warp]
[warp]
49
19
15
16
2
-49
0
[/warp]
[warp]
27
19
7
25
-49
48
0
[/warp]
[warp]
46
60
15
4
2
-29
0
[/warp]
[warp]
47
60
15
4
2
-29
0
[/warp]
[warp]
48
60
15
4
2
-29
0
[/warp]
[warp]
49
60
15
4
2
-29
0
[/warp]
[warp]
50
60
15
4
2
-29
0
[/warp]
[warp]
51
60
15
4
2
-29
0
[/warp]
[warp]
16
11
22
13
-39
-15
0
[/warp]
[warp]
23
11
22
13
-39
-16
0
[/warp]
[warp]
51
11
16
13
-39
-40
0
[/warp]
[warp]
59
26
22
13
-38
-49
0
[/warp]
[warp]
18
19
10
8
-39
-28
0
[/warp]
[warp]
51
11
16
13
-39
-40
0
[/warp]
[warp]
18
19
10
8
-39
-28
0
[/warp]
[warp]
53
33
10
8
-39
-32
0
[/warp]





