[npc]
Seasond_Sailor
up
395
6
60
NULL
0
-1
0
false
false
false
[/npc]
[warp]
29
44
15
16
10
-49
0
[/warp]
[warp]
3
43
5
7
10
-50
0
[/warp]
[warp]
16
8
32
17
1
-47
0
[/warp]
[warp]
17
8
32
17
1
-47
0
[/warp]
[warp]
17
33
11
30
-43
48
0
[/warp]
[warp]
3
18
10
8
-39
-29
0
[/warp]
[warp]
35
18
21
14
-39
-33
0
[/warp]
