[warp]
26
56
43
60
33
21
0
[/warp]
[warp]
44
29
15
16
11
49
0
[/warp]
[warp]
17
29
5
7
28
49
0
[/warp]
[warp]
8
35
10
16
-44
-35
0
[/warp]
[warp]
11
18
10
14
-44
-36
0
[/warp]
[warp]
9
6
13
15
-44
-37
0
[/warp]
[warp]
15
8
11
16
-44
-38
0
[/warp]
[warp]
30
4
12
14
-44
-39
0
[/warp]
[warp]
44
5
10
15
-44
-40
0
[/warp]
[warp]
44
18
14
18
-44
-41
0
[/warp]
[warp]
52
24
11
15
-44
-42
0
[/warp]
[warp]
53
34
10
16
-45
-3
0
[/warp]
[warp]
31
16
31
26
-40
-36
0
[/warp]
[warp]
31
32
16
40
-42
47
0
[/warp]