[warp]
57
55
76
42
47
6
0
[/warp]
[warp]
47
55
95
18
47
9
0
[/warp]
[warp]
14
66
10
38
34
8
0
[/warp]
[warp]
14
67
38
34
47
8
0
[/warp]
[warp]
14
68
38
34
47
8
0
[/warp]
[warp]
14
69
38
35
47
8
0
[/warp]
[warp]
14
70
38
35
47
8
0
[/warp]
[warp]
89
66
10
88
34
8
0
[/warp]
[warp]
89
67
88
34
47
8
0
[/warp]
[warp]
89
68
88
34
47
8
0
[/warp]
[warp]
89
69
88
35
47
8
0
[/warp]
[warp]
89
70
88
35
47
8
0
[/warp]
[warp]
20
76
18
97
47
7
0
[/warp]
[warp]
27
76
26
97
47
7
0
[/warp]
[warp]
34
76
34
97
47
7
0
[/warp]
[warp]
41
76
42
97
47
7
0
[/warp]
[warp]
62
76
60
97
47
7
0
[/warp]
[warp]
69
76
68
97
47
7
0
[/warp]
[warp]
76
76
76
97
47
7
0
[/warp]
[warp]
83
76
84
97
47
7
0
[/warp]
[warp]
18
96
20
75
47
7
0
[/warp]
[warp]
26
96
27
75
47
7
0
[/warp]
[warp]
34
96
34
75
47
7
0
[/warp]
[warp]
42
96
41
75
47
7
0
[/warp]
[warp]
60
96
62
75
47
7
0
[/warp]
[warp]
68
96
69
75
47
7
0
[/warp]
[warp]
76
96
76
75
47
7
0
[/warp]
[warp]
84
96
83
75
47
7
0
[/warp]
[warp]
20
60
18
27
47
7
0
[/warp]
[warp]
27
60
26
27
47
7
0
[/warp]
[warp]
34
60
34
27
47
7
0
[/warp]
[warp]
41
60
42
27
47
7
0
[/warp]
[warp]
62
60
60
27
47
7
0
[/warp]
[warp]
69
60
68
27
47
7
0
[/warp]
[warp]
76
60
76
27
47
7
0
[/warp]
[warp]
83
60
84
27
47
7
0
[/warp]
[warp]
18
28
20
61
47
7
0
[/warp]
[warp]
26
28
27
61
47
7
0
[/warp]
[warp]
34
28
34
61
47
7
0
[/warp]
[warp]
42
28
41
61
47
7
0
[/warp]
[warp]
60
28
62
61
47
7
0
[/warp]
[warp]
68
28
69
61
47
7
0
[/warp]
[warp]
76
28
76
61
47
7
0
[/warp]
[warp]
84
28
83
61
47
7
0
[/warp]
[npc]
Lass Ann
right
382
17
97
Togetic,45,Clefable,45,Raichu,45
3
-1
0
false
false
false
[/npc]
[npc]
Lass 
right
382
17
97
Togetic,45,Clefable,45,Raichu,45
3
-1
0
false
false
false
[/npc]
[npc]
Lass 
up
381
20
101
Nidoqueen,45,Vespiquen,45,Delcatty,45
3
-1
1
false
false
false
[/npc]
[npc]
Gentleman
right
332
25
99
Arcanine,45,Quagsire,45
3
-1
2
false
false
false
[/npc]
[npc]
Youngster
left
261
29
101
Croconaw,35
1
-1
3
false
false
false
[/npc]
[npc]
Lass 
right
382
32
98
Pichu,25,Pikachu,40,Raichu,45
3
-1
1
false
false
false
[/npc]
[npc]
Fisherman
up
368
35
103
Starmie,50
1
-1
4
false
false
false
[/npc]
[npc]
Waiter
left
363
43
97
Machamp,50
1
-1
5
false
false
false
[/npc]
[npc]
Lass 
up
381
44
100
Togekiss,50
1
-1
1
false
false
false
[/npc]
[npc]
Tony
left
381
62
100
NULL
0
-1
3
false
false
false
[/npc]
[npc]
Old Man
up
276
67
100
Ninetails,50
1
-1
2
false
false
false
[/npc]
[npc]
Youngster
left
261
70
97
Quilava,35
1
-1
3
false
false
false
[/npc]
[npc]
Youngster
right
280
75
98
Mightyena,50,Honchkrow,50
2
-1
3
false
false
false
[/npc]
[npc]
Youngster
up
261
77
103
Bayleef,35
1
-1
3
false
false
false
[/npc]
[npc]
Waiter
down
383
85
99
NULL
0
-1
6
true
false
false
[/npc]
[npc]
Baby
right
342
25
63
NULL
0
-1
7
false
false
false
[/npc]
[npc]
Mom
down
358
24
63
NULL
0
-1
8
false
false
false
[/npc]
[npc]
Waiter
down
328
53
62
NULL
0
-1
9
false
false
false
[/npc]
[npc]
Waiter
down
335
78
69
NULL
0
-1
9
false
false
false
[/npc]
[npc]
Sarah
down
325
51
54
NULL
0
-1
1
false
false
false
[/npc]
[npc]
Theo
down
319
52
54
NULL
0
-1
10
false
false
false
[/npc]
[npc]
Timothy
down
319
17
20
Skarmory,45,Ursaring,45,Ariados,45
3
-1
0
false
false
false
[/npc]
[npc]
Medusa
left
326
21
24
Rapidash,50,Dodrio,50
2
-1
3
false
false
false
[/npc]
[npc]
Muriel
right
340
24
24
Weavile,60
1
-1
3
false
false
false
[/npc]
[npc]
Luigi
left
341
29
22
Gengar,50
1
-1
0
false
false
false
[/npc]
[npc]
Susan
down
343
34
22
Dewgong,45,Tangela,45
2
-1
1
false
false
false
[/npc]
[npc]
Seth
left
344
36
26
Hypno,50
1
-1
0
false
false
false
[/npc]
[npc]
Simon
down
334
41
20
Crobat,50,Snorlax,50
2
-1
3
false
false
false
[/npc]
[npc]
Gamer
right
336
58
24
Aggron,50
1
-1
3
false
false
false
[/npc]
[npc]
Gamer
left
336
63
21
Tyranitar,50
1
-1
3
false
false
false
[/npc]
[npc]
Risky Man
right
339
67
24
Magnezone,50
1
-1
0
false
false
false
[/npc]
[npc]
Gamer
right
336
58
24
Aggron,50
1
-1
3
false
false
false
[/npc]
[npc]
Leonard
down
351
85
23
Golem,50
1
-1
0
false
false
false
[/npc]
[npc]
NULL
down
328
53
63
NULL
0
-1
9
false
false
false
[/npc]



