[npc]
NULL
down
0
33
6
NULL
0
-1
0
false
false
false
[/npc]
[npc]
NULL
down
0
10
17
NULL
0
-1
1
false
false
false
[/npc]
[npc]
NULL
down
0
10
24
NULL
0
-1
2,3
false
false
false
[/npc]
[npc]
NULL
down
0
34
18
NULL
0
-1
4
false
false
false
[/npc]
[npc]
NULL
down
0
45
17
NULL
0
-1
5,6
false
false
false
[/npc]
[warp]
15
7
15
16
-46
-31
0
[/warp]
[warp]
28
17
5
7
-46
-29
0
[/warp]
[warp]
9
6
5
7
-46
-24
0
[/warp]
[warp]
19
17
5
7
-46
-23
0
[/warp]
[warp]
28
24
5
7
-50
-35
0
[/warp]
[warp]
12
17
6
10
-50
-36
0
[/warp]
[warp]
14
25
23
30
-46
-22
0
[/warp]
[warp]
23
34
11
40
33
-42
0
[/warp]
[npc]
Seasond_Sailor
up
395
23
34
NULL
0
-1
0
false
false
false
[/npc]
[hmobject]
CUT_TREE
19
24
[/hmobject]
[npc]
NPC
down
276
33
11
NULL
0
-1
7
false
false
false
[/npc]
[npc]
NPC
down
36
24
19
NULL
0
-1
8,9
false
false
false
[/npc]