[warp]
15
17
27
36
45
-42
0
[/warp]
[npc]
NULL
down
0
15
11
NULL
0
-1
0
true
false
false
[/npc]
[npc]
Nurse Joy
down
157
15
10
NULL
0
-1
1
false
false
false
[/npc]
[npc]
NULL
down
0
19
9
NULL
0
-1
2
false
true
false
[/npc]
[npc]
Spriter
down
171
21
10
NULL
0
-1
3
false
false
false
[/npc]