0
-1
-2
-3
3
4
-4
-5
6
-6
-7
12
13
17
18
21
22
33
36
41
48
50
76
77
78
103
107
108
109
118
134
135
136
137
140
149
150
153
154
155
156
157
158
165
168
170
171
173
174
182
183
185
186
187
189
191
192
193
194
196
197
198
200
201
202
203
204
206
208
209
217
227
234
236
238
243
244
245
246
247
248
249
250
251
252
253
254
255
256
281
282
283
284
285
286
287
288
289
290
291
292
293
294
295
296
298
299
300
301
302
303
304
318
330
336
364
386
387
388
389
390
391
392
393
394
396
397
398
399
400
401
402
403
404
405
406
407
408
409
410
411
412
413
414
415
416
417
418
419
420
421
422
423
424
425
426
427
428
429
430
431
432
433
434
435
436
437
438
439
440
441
442
443
444
445
446
447
448
450
451
452
453
454
455
456
457
458
459
460
461
462
463
464
465
466
467
468
469
470
471
472
473